/* XPM */
static char * frameAT_xpm[] = {
"6 70 15 1",
" 	c #2A2A2A",
".	c #E0E0E0",
"+	c #DFDFDF",
"@	c #DEDEDE",
"#	c #DDDDDD",
"$	c #DCDCDC",
"%	c #DBDBDB",
"&	c #DADADA",
"*	c #D9D9D9",
"=	c #D8D8D8",
"-	c #D7D7D7",
";	c #D6D6D6",
">	c #D5D5D5",
",	c #CECECE",
"'	c #AAAAAA",
"      ",
"      ",
"......",
"......",
"......",
"......",
"......",
"++++++",
"++++++",
"++++++",
"++++++",
"++++++",
"@@@@@@",
"@@@@@@",
"@@@@@@",
"@@@@@@",
"@@@@@@",
"######",
"######",
"######",
"######",
"######",
"######",
"$$$$$$",
"$$$$$$",
"$$$$$$",
"$$$$$$",
"$$$$$$",
"%%%%%%",
"%%%%%%",
"%%%%%%",
"%%%%%%",
"%%%%%%",
"&&&&&&",
"&&&&&&",
"&&&&&&",
"&&&&&&",
"&&&&&&",
"&&&&&&",
"******",
"******",
"******",
"******",
"******",
"******",
"******",
"******",
"******",
"******",
"======",
"======",
"======",
"======",
"======",
"======",
"------",
"------",
"------",
"------",
"------",
";;;;;;",
";;;;;;",
";;;;;;",
";;;;;;",
";;;;;;",
">>>>>>",
">>>>>>",
",,,,,,",
"''''''",
"''''''"};
