/* XPM */
static char * frameITL_xpm[] = {
"10 70 5 1",
" 	c None",
".	c #2A2A2A",
"+	c #ECECEC",
"@	c #E6E6E6",
"#	c #BDBDBD",
"  ........",
"  ........",
"..++++++++",
"..++++++++",
"..++++++++",
"..++++++++",
"..++++++++",
"..++++++++",
"..++++++++",
"..++++++++",
"..++++++++",
"..++++++++",
"..++++++++",
"..++++++++",
"..++++++++",
"..++++++++",
"..++++++++",
"..++++++++",
"..++++++++",
"..++++++++",
"..++++++++",
"..++++++++",
"..++++++++",
"..++++++++",
"..++++++++",
"..++++++++",
"..++++++++",
"..++++++++",
"..++++++++",
"..++++++++",
"..++++++++",
"..++++++++",
"..++++++++",
"..++++++++",
"..++++++++",
"..++++++++",
"..++++++++",
"..++++++++",
"..++++++++",
"..++++++++",
"..++++++++",
"..++++++++",
"..++++++++",
"..++++++++",
"..++++++++",
"..++++++++",
"..++++++++",
"..++++++++",
"..++++++++",
"..++++++++",
"..++++++++",
"..++++++++",
"..++++++++",
"..++++++++",
"..++++++++",
"..++++++++",
"..++++++++",
"..++++++++",
"..++++++++",
"..++++++++",
"..++++++++",
"..++++++++",
"..++++++++",
"..++++++++",
"..++++++++",
"..++++++++",
"..++++++++",
"..@@@@@@@@",
"..########",
"..########"};
