/* XPM */
static char * hideA_xpm[] = {
"60 136 63 1",
" 	c #E0E0E0",
".	c #DFDFDF",
"+	c #D3D3D3",
"@	c #AAAAAA",
"#	c #969696",
"$	c #929292",
"%	c #979797",
"&	c #DEDEDE",
"*	c #A9A9A9",
"=	c #919191",
"-	c #D9D9D9",
";	c #D8D8D8",
">	c #959595",
",	c #DDDDDD",
"'	c #909090",
")	c #DCDCDC",
"!	c #8F8F8F",
"~	c #333333",
"{	c #DBDBDB",
"]	c #DADADA",
"^	c #8E8E8E",
"/	c #8D8D8D",
"(	c #8C8C8C",
"_	c #D7D7D7",
":	c #D6D6D6",
"<	c #8B8B8B",
"[	c #8A8A8A",
"}	c #D4D4D4",
"|	c #898989",
"1	c #888888",
"2	c #D2D2D2",
"3	c #D1D1D1",
"4	c #D0D0D0",
"5	c #878787",
"6	c #C8C8C8",
"7	c #999999",
"8	c #868686",
"9	c #9C9C9C",
"0	c #C6C6C6",
"a	c #CECECE",
"b	c #B9B9B9",
"c	c #BDBDBD",
"d	c #C9C9C9",
"e	c #858585",
"f	c #9A9A9A",
"g	c #BCBCBC",
"h	c #C4C4C4",
"i	c #C2C2C2",
"j	c #C3C3C3",
"k	c #D5D5D5",
"l	c #A1A1A1",
"m	c #A0A0A0",
"n	c #B5B5B5",
"o	c #B4B4B4",
"p	c #CACACA",
"q	c #CBCBCB",
"r	c #CDCDCD",
"s	c #CFCFCF",
"t	c #A4A4A4",
"u	c #9F9F9F",
"v	c #A6A6A6",
"w	c #A5A5A5",
"x	c #A7A7A7",
"                                                            ",
"                                                            ",
"                                                            ",
"                                                            ",
"                                                            ",
"............................................................",
"............................................................",
"............................................................",
".......+@#$$$$$$$$$$$$$$$$$$$$$$$$$$$$$$$$$$$$$$$$#@+.......",
"......+%$$$$$$$$$$$$$$$$$$$$$$$$$$$$$$$$$$$$$$$$$$$$%+......",
"&&&&&&*=@-                                        ;@=@&&&&&&",
"&&&&&&>=-                                          ;=>&&&&&&",
"&&&&&&=$ .......................................... ==&&&&&&",
"&&&&&&=$............................................==&&&&&&",
"&&&&&&=$............................................==&&&&&&",
",,,,,,'=&&&&&&&&&&&&&&&&&&&&&&&&&&&&&&&&&&&&&&&&&&&&'',,,,,,",
",,,,,,'=&&&&&&&&&&&&&&&&&&&&&&&&&&&&&&&&&&&&&&&&&&&&'',,,,,,",
",,,,,,'=&&&&&&&&&&&&&&&&&&&&&&&&&&&&&&&&&&&&&&&&&&&&'',,,,,,",
",,,,,,'=,,,,,,,,,,,,,,,,,,,,,,,,,,,,,,,,,,,,,,,,,,,,'',,,,,,",
",,,,,,'=,,,,,,,,,,,,,,,,,,,,,,,,,,,,,,,,,,,,,,,,,,,,'',,,,,,",
",,,,,,'=,,,,,,,,,,,,,,,,,,,,,,,,,,,,,,,,,,,,,,,,,,,,'',,,,,,",
"))))))!'))))))))))))))))))))))))))))))))))))))))))))!!))))))",
"))))))!'))))))))))))))))))))))))))))))))))))))))))))!!))))))",
"))))))!'))))))))))))))))))))))))))))))))))))))))))))!!))))))",
"))))))!'))))))))))))))~~~~~~))))~~~~~~))))))))))))))!!))))))",
"))))))!'))))))))))))))~~~~~~))))~~~~~~))))))))))))))!!))))))",
"{{{{{{!'{{{{{{{{{{{{{{~~~~~~{{{{~~~~~~{{{{{{{{{{{{{{!!{{{{{{",
"{{{{{{!'{{{{{{{{{{{{{{~~~~~~{{{{~~~~~~{{{{{{{{{{{{{{!!{{{{{{",
"{{{{{{!'{{{{{{{{{{{{{{~~~~{{{{{{{{~~~~{{{{{{{{{{{{{{!!{{{{{{",
"{{{{{{!'{{{{{{{{{{{{{{~~~~{{{{{{{{~~~~{{{{{{{{{{{{{{!!{{{{{{",
"{{{{{{!'{{{{{{{{{{{{{{{{{{{{{{{{{{{{{{{{{{{{{{{{{{{{!!{{{{{{",
"]]]]]]^!]]]]]]]]]]]]]]]]]]]]]]]]]]]]]]]]]]]]]]]]]]]]^^]]]]]]",
"]]]]]]^!]]]]]]]]]]]]]]]]]]]]]]]]]]]]]]]]]]]]]]]]]]]]^^]]]]]]",
"]]]]]]^!]]]]]]]]]]]]]]]]]]]]]]]]]]]]]]]]]]]]]]]]]]]]^^]]]]]]",
"]]]]]]^!]]]]]]]]]]]]]]~~~~]]]]]]]]~~~~]]]]]]]]]]]]]]^^]]]]]]",
"]]]]]]^!]]]]]]]]]]]]]]~~~~]]]]]]]]~~~~]]]]]]]]]]]]]]^^]]]]]]",
"]]]]]]^!]]]]]]]]]]]]]]~~~~~~]]]]~~~~~~]]]]]]]]]]]]]]^^]]]]]]",
"------/^--------------~~~~~~----~~~~~~--------------//------",
"------/^--------------~~~~~~----~~~~~~--------------//------",
"------/^--------------~~~~~~----~~~~~~--------------//------",
"------/^--------------------------------------------//------",
"------/^--------------------------------------------//------",
"------(/;;;;;;;;;;;;;;;;;;;;;;;;;;;;;;;;;;;;;;;;;;;;((------",
"------(/____________________________________________((------",
"------((::::::::::::::::::::::::::::::::::::::::::::((------",
"------((::::::::::::::::::::::::::::::::::::::::::::((------",
"------<(::::::::::::::::::::::::::::::::::::::::::::<<------",
";;;;;;[<}}}}}}}}}}}}}}}}}}}}}}}}}}}}}}}}}}}}}}}}}}}}[[;;;;;;",
";;;;;;|[++++++++++++++++++++++++++++++++++++++++++++||;;;;;;",
";;;;;;1|2222222222222222222222222222222222222222222211;;;;;;",
";;;;;;1|3333333333333333333333333333333333333333333311;;;;;;",
";;;;;;114444444444444444444444444444444444444444444411;;;;;;",
";;;;;;<5644444444444444444444444444444444444444444465<;;;;;;",
"______7890aaaaaaaaaaaaaaaaaaaaaaaaaaaaaaaaaaaaaaaa0989______",
"______b[88888888888888888888888888888888888888888888<c______",
"______db7|eeeeeeeeeeeeeeeeeeeeeeeeeeeeeeeeeeeeeeee|fgd______",
"______}hiiiiiiiiiiiiiiiiiiiiiiiiiiiiiiiiiiiiiiiiiiiih}______",
"_______}djiiiiiiiiiiiiiiiiiiiiiiiiiiiiiiiiiiiiiiiijd}_______",
"::::::::::::::::::::::::::::::::::::::::::::::::::::::::::::",
"::::::::::::::::::::::::::::::::::::::::::::::::::::::::::::",
"::::::::::::::::::::::::::::::::::::::::::::::::::::::::::::",
"::::::::::::::::::::::::::::::::::::::::::::::::::::::::::::",
"::::::::::::::::::::::::::::::::::::::::::::::::::::::::::::",
"kkkkkkkkkkkkkkkkkkkkkkkkkkkkkkkkkkkkkkkkkkkkkkkkkkkkkkkkkkkk",
"kkkkkkkkkkkkkkkkkkkkkkkkkkkkkkkkkkkkkkkkkkkkkkkkkkkkkkkkkkkk",
"aaaaaaaaaaaaaaaaaaaaaaaaaaaaaaaaaaaaaaaaaaaaaaaaaaaaaaaaaaaa",
"@@@@@@@@@@@@@@@@@@@@@@@@@@@@@@@@@@@@@@@@@@@@@@@@@@@@@@@@@@@@",
"@@@@@@@@@@@@@@@@@@@@@@@@@@@@@@@@@@@@@@@@@@@@@@@@@@@@@@@@@@@@",
"                                                            ",
"                                                            ",
"                                                            ",
"                                                            ",
"                                                            ",
"............................................................",
"............................................................",
"............................................................",
".......3l[8888888888888888888888888888888888888888[m4.......",
"......3<88888888888888888888888888888888888888888888<3......",
"&&&&&&me%nbbbbbbbbbbbbbbbbbbbbbbbbbbbbbbbbbbbbbbbbo%el&&&&&&",
"&&&&&&[8nbbbbbbbbbbbbbbbbbbbbbbbbbbbbbbbbbbbbbbbbbbn8[&&&&&&",
"&&&&&&85cjhhhhhhhhhhhhhhhhhhhhhhhhhhhhhhhhhhhhhhhhjc88&&&&&&",
"&&&&&&85jhhhhhhhhhhhhhhhhhhhhhhhhhhhhhhhhhhhhhhhhhhi88&&&&&&",
"&&&&&&850pppppppppppppppppppppppppppppppppppppppppp088&&&&&&",
",,,,,,e86dddddddddddddddddddddddddddddddddddddddddddee,,,,,,",
",,,,,,e8qrrrrrrrrrrrrrrrrrrrrrrrrrrrrrrrrrrrrrrrrrrqee,,,,,,",
",,,,,,85aaaaaaaaaaaaaaaaaaaaaaaaaaaaaaaaaaaaaaaaaaar88,,,,,,",
",,,,,,85aaaaaaaaaaaaaaaaaaaaaaaaaaaaaaaaaaaaaaaaaaaa88,,,,,,",
",,,,,,85aaaaaaaaaaaaaaaaaaaaaaaaaaaaaaaaaaaaaaaaaaaa88,,,,,,",
",,,,,,51ssssssssssssssssssssssssssssssssssssssssssss55,,,,,,",
"))))))55aaaaaaaaaaaaaaaaaaaaaaaaaaaaaaaaaaaaaaaaaaaa55))))))",
"))))))55aaaaaaaaaaaaaaaaaaaaaaaaaaaaaaaaaaaaaaaaaaaa55))))))",
"))))))55ssssssssssssssssssssssssssssssssssssssssssss55))))))",
"))))))55ssssssssssssss~~~~~~ssss~~~~~~ssssssssssssss55))))))",
"))))))55ssssssssssssss~~~~~~ssss~~~~~~ssssssssssssss55))))))",
"{{{{{{85aaaaaaaaaaaaaa~~~~~~aaaa~~~~~~aaaaaaaaaaaaaa88{{{{{{",
"{{{{{{51ssssssssssssss~~~~~~ssss~~~~~~ssssssssssssss55{{{{{{",
"{{{{{{51ssssssssssssss~~~~ssssssss~~~~ssssssssssssss55{{{{{{",
"{{{{{{51ssssssssssssss~~~~ssssssss~~~~ssssssssssssss55{{{{{{",
"{{{{{{114444444444444444444444444444444444444444444411{{{{{{",
"]]]]]]55ssssssssssssssssssssssssssssssssssssssssssss55]]]]]]",
"]]]]]]55ssssssssssssssssssssssssssssssssssssssssssss55]]]]]]",
"]]]]]]514444444444444444444444444444444444444444444455]]]]]]",
"]]]]]]5144444444444444~~~~44444444~~~~4444444444444455]]]]]]",
"]]]]]]5144444444444444~~~~44444444~~~~4444444444444455]]]]]]",
"]]]]]]1|33333333333333~~~~~~3333~~~~~~3333333333333311]]]]]]",
"------5144444444444444~~~~~~4444~~~~~~4444444444444455------",
"------5144444444444444~~~~~~4444~~~~~~4444444444444455------",
"------5144444444444444~~~~~~4444~~~~~~4444444444444455------",
"------514444444444444444444444444444444444444444444455------",
"------514444444444444444444444444444444444444444444455------",
"------1|3333333333333333333333333333333333333333333311------",
"------1|3333333333333333333333333333333333333333333311------",
"------1|3333333333333333333333333333333333333333333311------",
"------|[22222222222222222222222222222222222222222222||------",
"------|[22222222222222222222222222222222222222222222||------",
";;;;;;1|3333333333333333333333333333333333333333333311;;;;;;",
";;;;;;1|2222222222222222222222222222222222222222222211;;;;;;",
";;;;;;1|2222222222222222222222222222222222222222222211;;;;;;",
";;;;;;1|2222222222222222222222222222222222222222222211;;;;;;",
";;;;;;1|2222222222222222222222222222222222222222222211;;;;;;",
";;;;;;^|q++++++++++++++++++++++++++++++++++++++++++q|^;;;;;;",
"______t|up2222222222222222222222222222222222222222pu|v______",
"______a!||||||||||||||||||||||||||||||||||||||||||||'2______",
"______]sw^||||||||||||||||||||||||||||||||||||||||^x2]______",
"______;{{{{{{{{{{{{{{{{{{{{{{{{{{{{{{{{{{{{{{{{{{{{{{_______",
"_______;]{{{{{{{{{{{{{{{{{{{{{{{{{{{{{{{{{{{{{{{{{{]________",
"::::::::::::::::::::::::::::::::::::::::::::::::::::::::::::",
"::::::::::::::::::::::::::::::::::::::::::::::::::::::::::::",
"::::::::::::::::::::::::::::::::::::::::::::::::::::::::::::",
"::::::::::::::::::::::::::::::::::::::::::::::::::::::::::::",
"::::::::::::::::::::::::::::::::::::::::::::::::::::::::::::",
"kkkkkkkkkkkkkkkkkkkkkkkkkkkkkkkkkkkkkkkkkkkkkkkkkkkkkkkkkkkk",
"kkkkkkkkkkkkkkkkkkkkkkkkkkkkkkkkkkkkkkkkkkkkkkkkkkkkkkkkkkkk",
"aaaaaaaaaaaaaaaaaaaaaaaaaaaaaaaaaaaaaaaaaaaaaaaaaaaaaaaaaaaa",
"@@@@@@@@@@@@@@@@@@@@@@@@@@@@@@@@@@@@@@@@@@@@@@@@@@@@@@@@@@@@",
"@@@@@@@@@@@@@@@@@@@@@@@@@@@@@@@@@@@@@@@@@@@@@@@@@@@@@@@@@@@@"};
