/* XPM */
static char * menuButtonI_xpm[] = {
"18 48 2 1",
" 	c #2D2D2D",
".	c #000000",
"                  ",
"                  ",
"                  ",
"                  ",
"                  ",
"                  ",
"                  ",
"                  ",
"                  ",
"                  ",
"                  ",
"                  ",
"                  ",
"     ...  ...     ",
"     ...  ...     ",
"     ...  ...     ",
"                  ",
"                  ",
"                  ",
"                  ",
"                  ",
"                  ",
"                  ",
"..................",
"                  ",
"                  ",
"                  ",
"                  ",
"                  ",
"                  ",
"                  ",
"                  ",
"                  ",
"                  ",
"                  ",
"                  ",
"                  ",
"     ...  ...     ",
"     ...  ...     ",
"     ...  ...     ",
"                  ",
"                  ",
"                  ",
"                  ",
"                  ",
"                  ",
"                  ",
".................."};
