/* XPM */
static char * depthI_xpm[] = {
"60 136 65 1",
" 	c #555555",
".	c #505050",
"+	c #414141",
"@	c #393939",
"#	c #373737",
"$	c #525252",
"%	c #383838",
"&	c #656565",
"*	c #909090",
"=	c #B6B6B6",
"-	c #757575",
";	c #767676",
">	c #B7B7B7",
",	c #BABABA",
"'	c #7B7B7B",
")	c #737373",
"!	c #777777",
"~	c #747474",
"{	c #949494",
"]	c #929292",
"^	c #969696",
"/	c #B9B9B9",
"(	c #404040",
"_	c #3A3A3A",
":	c #333333",
"<	c #515151",
"[	c #4B4B4B",
"}	c #323232",
"|	c #303030",
"1	c #363636",
"2	c #434343",
"3	c #313131",
"4	c #444444",
"5	c #464646",
"6	c #474747",
"7	c #484848",
"8	c #494949",
"9	c #4A4A4A",
"0	c #4F4F4F",
"a	c #6C6C6C",
"b	c #B3B3B3",
"c	c #EDEDED",
"d	c #878787",
"e	c #8A8A8A",
"f	c #EEEEEE",
"g	c #B4B4B4",
"h	c #F3F3F3",
"i	c #ECECEC",
"j	c #858585",
"k	c #8B8B8B",
"l	c #868686",
"m	c #BBBBBB",
"n	c #888888",
"o	c #BDBDBD",
"p	c #4C4C4C",
"q	c #4E4E4E",
"r	c #F1F1F1",
"s	c #343434",
"t	c #4D4D4D",
"u	c #575757",
"v	c #353535",
"w	c #595959",
"x	c #585858",
"y	c #5D5D5D",
"z	c #5E5E5E",
"                                                            ",
"                                                            ",
"                                                            ",
"                                                            ",
"                                                            ",
"                                                            ",
"                                                            ",
"                                                            ",
"       .+@########################################@+.       ",
"      .@############################################@.      ",
"      +#+$                                        $+#+      ",
"      @#$                                          $#@      ",
"      #%                                            ##      ",
"      #%                                            ##      ",
"      #%                                            ##      ",
"      #%                                            ##      ",
"      #%                                            ##      ",
"      #%                                            ##      ",
"      #%                                            ##      ",
"      #%                                            ##      ",
"      #%                                            ##      ",
"      #%                                            ##      ",
"      #%                                            ##      ",
"      #%                &          &                ##      ",
"      #%               *=-        ;>*               ##      ",
"      #%              *,,=-      ;>,,*              ##      ",
"      #%             ',,,,=)    !>,,,,~             ##      ",
"      #%              {,,,,=-  ;>,,,,]              ##      ",
"      #%               {,,,,=-;>,,,,]               ##      ",
"      #%                ^,,,,=>,,,,*                ##      ",
"      #%                 {,,,,,,,,]                 ##      ",
"      #%                  {,,,,,,]                  ##      ",
"      #%                   {,,,,]                   ##      ",
"      #%                    {,,]                    ##      ",
"      #%                     ^*                     ##      ",
"      #%                                            ##      ",
"      #%                                            ##      ",
"      #%              ,,,,,,,,,,,,,,,/              ##      ",
"      #%              ,,,,,,,,,,,,,,,/              ##      ",
"      #%              ,,,,,,,,,,,,,,,/              ##      ",
"      #%              ,,,,,,,,,,,,,,,/              ##      ",
"      #%                                            ##      ",
"      #%                                            ##      ",
"      #%                                            ##      ",
"      #%                                            ##      ",
"      #%                                            ##      ",
"      #%                                            ##      ",
"      #%                                            ##      ",
"      #%                                            ##      ",
"      #%                                            ##      ",
"      #%                                            ##      ",
"      #%                                            ##      ",
"      @#$                                          $#@      ",
"      +#($                                        $(#+      ",
"      .@############################################_$      ",
"       .+@########################################@+$       ",
"                                                            ",
"                                                            ",
"                                                            ",
"                                                            ",
"                                                            ",
"                                                            ",
"                                                            ",
"                                                            ",
"                                                            ",
"............................................................",
"::::::::::::::::::::::::::::::::::::::::::::::::::::::::::::",
"::::::::::::::::::::::::::::::::::::::::::::::::::::::::::::",
"<<<<<<<<<<<<<<<<<<<<<<<<<<<<<<<<<<<<<<<<<<<<<<<<<<<<<<<<<<<<",
"<<<<<<<<<<<<<<<<<<<<<<<<<<<<<<<<<<<<<<<<<<<<<<<<<<<<<<<<<<<<",
"<<<<<<<<<<<<<<<<<<<<<<<<<<<<<<<<<<<<<<<<<<<<<<<<<<<<<<<<<<<<",
"<<<<<<<<<<<<<<<<<<<<<<<<<<<<<<<<<<<<<<<<<<<<<<<<<<<<<<<<<<<<",
"<<<<<<<<<<<<<<<<<<<<<<<<<<<<<<<<<<<<<<<<<<<<<<<<<<<<<<<<<<<<",
"............................................................",
"............................................................",
"............................................................",
".......[_}||||||||||||||||||||||||||||||||||||||||}@[.......",
"......[}||||||||||||||||||||||||||||||||||||||||||||}[......",
"......_|1+2222222222222222222222222222222222222222+1|_......",
"......}|+222222222222222222222222222222222222222222+|}......",
"......|345666666666666666666666666666666666666666654||......",
"......|356666666666666666666666666666666666666666665||......",
"......|378888888888888888888888888888888888888888887||......",
"......|378888888888888888888888888888888888888888888||......",
"......|389999999999999999999999999999999999999999998||......",
"......33[[[[[[[[[[[[89999999899999999999[[[[[[[[[[[933......",
"......33[[[[[[[[[[[[[[[[[[[[[[[[[[[[[[[[[[[[[[[[[[[[33......",
"......33[[[[[[[[[[[[[[[[[[[[[[[[[[[[[[[[[[[[[[[[[[[[33......",
"......33[[[[[[[[[[[[[[[[[[[[[[[[[[[[[[[[[[[[[[[[[[[[33......",
"000000|3999999999999[[[[[[[[[[[[[[[[[[[[999999999999||000000",
"000000|399999999999999999999999999999999999999999999||000000",
"000000|39999999999999999a9999999999a9999999999999999||000000",
"000000|3999999999999999bcd99999999efg999999999999999||000000",
"000000|399999999999999bhhcd999999efhhg99999999999999||000000",
"000000|39999999999999]hhhhij9999kfhhhhl9999999999999||000000",
"00000033[[[[[[[[[[[[99,hhhhcd99efhhhh>99[[[[[[[[[[[[33000000",
"00000033[[[[[[[[[[[[[[[mhhhhcnkfhhhh>[[[[[[[[[[[[[[[33000000",
"00000033[[[[[[[[[[[[[[[[ohhhhifhhhhg[[[[[[[[[[[[[[[[33000000",
"00000033[[[[[[[[[[[[[[[[[mhhhhhhhh>[[[[[[[[[[[[[[[[[33000000",
"00000033[[[[[[[[[[[[[[[[[[mhhhhhh>[[[[[[[[[[[[[[[[[[33000000",
"00000033[[[[[[[[[[[[[[[[[[[mhhhh>[[[[[[[[[[[[[[[[[[[33000000",
"00000033[[[[[[[[[[[[[[[[[[[[mhh>[[[[[[[[[[[[[[[[[[[[33000000",
"00000033[[[[[[[[[[[[[[[[[[[[[og[[[[[[[[[[[[[[[[[[[[[33000000",
"00000033[[[[[[[[[[[[[[[[[[[[[[[[[[[[[[[[[[[[[[[[[[[[33000000",
"0000003}pppppppppppp[[[[[[[[[[[[[[[[[[[[pppppppppppp33000000",
"qqqqqq33[[[[[[[[[[[[pphhhhhhhhhhhhhhhrpp[[[[[[[[[[[[33qqqqqq",
"qqqqqq33[[[[[[[[[[[[[[hhhhhhhhhhhhhhhr[[[[[[[[[[[[[[33qqqqqq",
"qqqqqq33[[[[[[[[[[[[[[hhhhhhhhhhhhhhhr[[[[[[[[[[[[[[33qqqqqq",
"qqqqqq33[[[[[[[[[[[[[[hhhhhhhhhhhhhhhr[[[[[[[[[[[[[[33qqqqqq",
"qqqqqq33[[[[[[[[[[[[[[[[[[[[[[[[[[[[[[[[[[[[[[[[[[[[33qqqqqq",
"qqqqqq33[[[[[[[[[[[[[[[[[[[[[[[[[[[[[[[[[[[[[[[[[[[[33qqqqqq",
"qqqqqq33[[[[[[[[[[[[[[[[[[[[[[[[[[[[[[[[[[[[[[[[[[[[33qqqqqq",
"qqqqqq33[[[[[[[[[[[[[[[[[[[[[[[[[[[[[[[[[[[[[[[[[[[[33qqqqqq",
"qqqqqq3}pppppppppppp[[[[[[[[[[[[[[[[[[[[pppppppppppp33qqqqqq",
"qqqqqq3}pppppppppppppppppppppppppppppppppppppppppppp33qqqqqq",
"qqqqqq3}pppppppppppppppppppppppppppppppppppppppppppp33qqqqqq",
"qqqqqq3}pppppppppppppppppppppppppppppppppppppppppppp33qqqqqq",
"qqqqqq3}pppppppppppppppppppppppppppppppppppppppppppp33qqqqqq",
"qqqqqq3}pppppppppppppppppppppppppppppppppppppppppppp33qqqqqq",
"qqqqqq3}pppppppppppppppppppppppppppppppppppppppppppp33qqqqqq",
"qqqqqqs}8pppppppppppppppppppppppppppppppppppppppppp8}sqqqqqq",
"tttttt(3@7[[[[[[[[[[[[[[[[[[[[[[[[[[[[[[[[[[[[[[[[7@3(tttttt",
"ttttttus33333333333333333333333333333333333333333333vwtttttt",
"ttttttwx(:3333333333333333333333333333333333333333:+wwtttttt",
"tttttt.yzzzzzzzzzzzzzzzzzzzzzzzzzzzzzzzzzzzzzzzzzzzzy0tttttt",
"ttttttt.wzzzzzzzzzzzzzzzzzzzzzzzzzzzzzzzzzzzzzzzzzzw0ttttttt",
"tttttttttttttttttttttttttttttttttttttttttttttttttttttttttttt",
"tttttttttttttttttttttttttttttttttttttttttttttttttttttttttttt",
"tttttttttttttttttttttttttttttttttttttttttttttttttttttttttttt",
"tttttttttttttttttttttttttttttttttttttttttttttttttttttttttttt",
"tttttttttttttttttttttttttttttttttttttttttttttttttttttttttttt",
"tttttttttttttttttttttttttttttttttttttttttttttttttttttttttttt",
"tttttttttttttttttttttttttttttttttttttttttttttttttttttttttttt",
"888888888888888888888888888888888888888888888888888888888888",
"::::::::::::::::::::::::::::::::::::::::::::::::::::::::::::",
"::::::::::::::::::::::::::::::::::::::::::::::::::::::::::::"};
