/* XPM */
static char *taskbarbg[] = {
/* columns rows colors chars-per-pixel */
"6 50 2 1 ",
"  c #272727",
". c gray27",
/* pixels */
"      ",
"      ",
"......",
"......",
"......",
"......",
"......",
"......",
"......",
"......",
"......",
"......",
"......",
"......",
"......",
"......",
"......",
"......",
"......",
"......",
"......",
"......",
"......",
"......",
"......",
"......",
"......",
"......",
"......",
"......",
"......",
"......",
"......",
"......",
"......",
"......",
"......",
"......",
"......",
"......",
"......",
"......",
"......",
"......",
"......",
"......",
"......",
"......",
"      ",
"      "
};
