/* XPM */
static char * frameITR_xpm[] = {
"10 70 5 1",
" 	c None",
".	c #000000",
"+	c #555555",
"@	c #505050",
"#	c #333333",
"........  ",
"........  ",
"++++++....",
"++++++....",
"++++++++..",
"++++++++..",
"++++++++..",
"++++++++..",
"++++++++..",
"++++++++..",
"++++++++..",
"++++++++..",
"++++++++..",
"++++++++..",
"++++++++..",
"++++++++..",
"++++++++..",
"++++++++..",
"++++++++..",
"++++++++..",
"++++++++..",
"++++++++..",
"++++++++..",
"++++++++..",
"++++++++..",
"++++++++..",
"++++++++..",
"++++++++..",
"++++++++..",
"++++++++..",
"++++++++..",
"++++++++..",
"++++++++..",
"++++++++..",
"++++++++..",
"++++++++..",
"++++++++..",
"++++++++..",
"++++++++..",
"++++++++..",
"++++++++..",
"++++++++..",
"++++++++..",
"++++++++..",
"++++++++..",
"++++++++..",
"++++++++..",
"++++++++..",
"++++++++..",
"++++++++..",
"++++++++..",
"++++++++..",
"++++++++..",
"++++++++..",
"++++++++..",
"++++++++..",
"++++++++..",
"++++++++..",
"++++++++..",
"++++++++..",
"++++++++..",
"++++++++..",
"++++++++..",
"++++++++..",
"++++++++..",
"++++++++..",
"++++++++..",
"@@@@@@@@..",
"########..",
"########.."};
