/* XPM */
static char * titleAB_xpm[] = {
"6 68 7 1",
" 	c #515151",
".	c #505050",
"+	c #4F4F4F",
"@	c #4E4E4E",
"#	c #4D4D4D",
"$	c #494949",
"%	c #333333",
"      ",
"      ",
"      ",
"      ",
"      ",
"......",
"......",
"......",
"......",
"......",
"......",
"......",
"......",
"......",
"......",
"......",
"......",
"......",
"......",
"......",
"......",
"++++++",
"++++++",
"++++++",
"++++++",
"++++++",
"++++++",
"++++++",
"++++++",
"++++++",
"++++++",
"++++++",
"++++++",
"++++++",
"++++++",
"++++++",
"++++++",
"@@@@@@",
"@@@@@@",
"@@@@@@",
"@@@@@@",
"@@@@@@",
"@@@@@@",
"@@@@@@",
"@@@@@@",
"@@@@@@",
"@@@@@@",
"@@@@@@",
"@@@@@@",
"@@@@@@",
"@@@@@@",
"@@@@@@",
"@@@@@@",
"######",
"######",
"######",
"######",
"######",
"######",
"######",
"######",
"######",
"######",
"######",
"######",
"$$$$$$",
"%%%%%%",
"%%%%%%"};
